{
  "type": "minecraft:crafting_shaped",
  "pattern": [
    " X ",
    " S ",
    " S "
  ],
  "key": {
    "X": {
      "item": "functionality:gamer_ingot"
    },
    "S": {
      "item": "minecraft:stick"
    }
  },
  "result": {
    "item": "functionality:gamer_shovel"
  }
}