{
  "type": "minecraft:crafting_shaped",
  "pattern": [
    "X X",
    "XXX",
    "XXX"
  ],
  "key": {
    "X": {
      "item": "functionality:gamer_ingot"
    }
  },
  "result": {
    "item": "functionality:gamer_chestplate"
  }
}