{
  "type": "minecraft:crafting_shaped",
  "pattern": [
    "   ",
    "X X",
    "X X"
  ],
  "key": {
    "X": {
      "item": "functionality:gamer_ingot"
    }
  },
  "result": {
    "item": "functionality:gamer_boots"
  }
}